%YAML 1.1
%TAG !u! tag:unity3d.com,2011:
--- !u!74 &7400000
AnimationClip:
  m_ObjectHideFlags: 0
  m_PrefabParentObject: {fileID: 0}
  m_PrefabInternal: {fileID: 0}
  m_Name: "DogAnim"
  serializedVersion: 6
  m_Legacy: 0
  m_Compressed: 0
  m_UseHighQualityCurve: 1
  m_RotationCurves:
  m_CompressedRotationCurves: []
  m_EulerCurves:
  m_PositionCurves:
  m_ScaleCurves:
  m_FloatCurves:
  m_PPtrCurves:
  - curve:
    - time: 0.15
      value: {fileID: 21300000, guid: 6f13e7cb65f440ada30c41d9787d5f6b, type: 3}
    - time: 0.2833333
      value: {fileID: 21300000, guid: ec94e95e2f4c4cf0aeaefdbe311d7527, type: 3}
    - time: 0.4333333
      value: {fileID: 21300000, guid: a27f48abbbca4886bbb4cb16a874ebd4, type: 3}
    - time: 0.5666667
      value: {fileID: 21300000, guid: 361bd67f7fb64d4db6dcaf90e86f419e, type: 3}
    - time: 0.7166666
      value: {fileID: 21300000, guid: ac6b7fd808af49a79df4d6ba02e91021, type: 3}
    - time: 0.85
      value: {fileID: 21300000, guid: a55ba54e5c724a7586e797e71d4fabc0, type: 3}
    - time: 1
      value: {fileID: 21300000, guid: 5823c9b924df41a6ad68a56195c8a3c6, type: 3}
    - time: 1.116667
      value: {fileID: 21300000, guid: 3cddc172c9d342dcbb2b3bb5ceb183ac, type: 3}
    - time: 1.266667
      value: {fileID: 21300000, guid: 6f13e7cb65f440ada30c41d9787d5f6b, type: 3}
    - time: 1.4
      value: {fileID: 21300000, guid: ec94e95e2f4c4cf0aeaefdbe311d7527, type: 3}
    - time: 1.55
      value: {fileID: 21300000, guid: a27f48abbbca4886bbb4cb16a874ebd4, type: 3}
    - time: 1.683333
      value: {fileID: 21300000, guid: 361bd67f7fb64d4db6dcaf90e86f419e, type: 3}
    - time: 1.833333
      value: {fileID: 21300000, guid: ac6b7fd808af49a79df4d6ba02e91021, type: 3}
    - time: 1.966667
      value: {fileID: 21300000, guid: a55ba54e5c724a7586e797e71d4fabc0, type: 3}
    - time: 2.116667
      value: {fileID: 21300000, guid: 5823c9b924df41a6ad68a56195c8a3c6, type: 3}
    attribute: m_Sprite
    path: 
    classID: 212
    script: {fileID: 0}
  m_SampleRate: 60
  m_WrapMode: 0
  m_Bounds:
    m_Center: {x: 0, y: 0, z: 0}
    m_Extent: {x: 0, y: 0, z: 0}
  m_MuscleClipSize: 3008
  m_MuscleClip:
    serializedVersion: 3
    m_DeltaPose:
      m_RootX:
        t: {x: 0, y: 0, z: 0}
        q: {x: 0, y: 0, z: 0, w: 1}
        s: {x: 1, y: 1, z: 1}
      m_LookAtPosition: {x: 0, y: 0, z: 0}
      m_LookAtWeight: {x: 0, y: 0, z: 0, w: 0}
      m_GoalArray:
      - m_X:
          t: {x: 0, y: 0, z: 0}
          q: {x: 0, y: 0, z: 0, w: 1}
          s: {x: 1, y: 1, z: 1}
          m_Weight: 
          m_WeightR: 0
          m_HintT: {x: 0, y: 0, z: 0}
          m_HintWeightT: 0
      - m_X:
          t: {x: 0, y: 0, z: 0}
          q: {x: 0, y: 0, z: 0, w: 1}
          s: {x: 1, y: 1, z: 1}
          m_Weight: 
          m_WeightR: 0
          m_HintT: {x: 0, y: 0, z: 0}
          m_HintWeightT: 0
      - m_X:
          t: {x: 0, y: 0, z: 0}
          q: {x: 0, y: 0, z: 0, w: 1}
          s: {x: 1, y: 1, z: 1}
          m_Weight: 
          m_WeightR: 0
          m_HintT: {x: 0, y: 0, z: 0}
          m_HintWeightT: 0
      - m_X:
          t: {x: 0, y: 0, z: 0}
          q: {x: 0, y: 0, z: 0, w: 1}
          s: {x: 1, y: 1, z: 1}
          m_Weight: 
          m_WeightR: 0
          m_HintT: {x: 0, y: 0, z: 0}
          m_HintWeightT: 0
      m_LeftHandPose:
        m_GrabX:
          t: {x: 0, y: 0, z: 0}
          q: {x: 0, y: 0, z: 0, w: 1}
          s: {x: 1, y: 1, z: 1}
        m_DoFArray:
        - 0
        - 0
        - 0
        - 0
        - 0
        - 0
        - 0
        - 0
        - 0
        - 0
        - 0
        - 0
        - 0
        - 0
        - 0
        - 0
        - 0
        - 0
        - 0
        - 0
        m_Override: 0
        m_CloseOpen: 0
        m_InOut: 0
        m_Grab: 0
      m_RightHandPose:
        m_GrabX:
          t: {x: 0, y: 0, z: 0}
          q: {x: 0, y: 0, z: 0, w: 1}
          s: {x: 1, y: 1, z: 1}
        m_DoFArray:
        - 0
        - 0
        - 0
        - 0
        - 0
        - 0
        - 0
        - 0
        - 0
        - 0
        - 0
        - 0
        - 0
        - 0
        - 0
        - 0
        - 0
        - 0
        - 0
        - 0
        m_Override: 0
        m_CloseOpen: 0
        m_InOut: 0
        m_Grab: 0
      m_DoFArray:
        - 0
        - 0
        - 0
        - 0
        - 0
        - 0
        - 0
        - 0
        - 0
        - 0
        - 0
        - 0
        - 0
        - 0
        - 0
        - 0
        - 0
        - 0
        - 0
        - 0
        - 0
        - 0
        - 0
        - 0
        - 0
        - 0
        - 0
        - 0
        - 0
        - 0
        - 0
        - 0
        - 0
        - 0
        - 0
        - 0
        - 0
        - 0
        - 0
        - 0
        - 0
        - 0
        - 0
        - 0
        - 0
        - 0
        - 0
        - 0
        - 0
        - 0
        - 0
        - 0
        - 0
        - 0
        - 0
      m_TDoFArray:
      - x: 0
        y: 0
        z: 0
      - x: 0
        y: 0
        z: 0
      - x: 0
        y: 0
        z: 0
      - x: 0
        y: 0
        z: 0
      - x: 0
        y: 0
        z: 0
      - x: 0
        y: 0
        z: 0
      - x: 0
        y: 0
        z: 0
      - x: 0
        y: 0
        z: 0
      - x: 0
        y: 0
        z: 0
      - x: 0
        y: 0
        z: 0
      - x: 0
        y: 0
        z: 0
      - x: 0
        y: 0
        z: 0
      - x: 0
        y: 0
        z: 0
      - x: 0
        y: 0
        z: 0
      - x: 0
        y: 0
        z: 0
      - x: 0
        y: 0
        z: 0
      - x: 0
        y: 0
        z: 0
      - x: 0
        y: 0
        z: 0
      - x: 0
        y: 0
        z: 0
      - x: 0
        y: 0
        z: 0
      - x: 0
        y: 0
        z: 0
    m_StartX:
      t: {x: 0, y: 0, z: 0}
      q: {x: 0, y: 0, z: 0, w: 1}
      s: {x: 1, y: 1, z: 1}
    m_StopX:
      t: {x: 0, y: 0, z: 0}
      q: {x: 0, y: 0, z: 0, w: 1}
      s: {x: 1, y: 1, z: 1}
    m_LeftFootStartX:
      t: {x: 0, y: 0, z: 0}
      q: {x: 0, y: 0, z: 0, w: 1}
      s: {x: 1, y: 1, z: 1}
    m_RightFootStartX:
      t: {x: 0, y: 0, z: 0}
      q: {x: 0, y: 0, z: 0, w: 1}
      s: {x: 1, y: 1, z: 1}
    m_AverageSpeed: {x: 0, y: 0, z: 0}
  m_ClipBindingConstant:
    genericBindings:
    - serializedVersion: 2
      path: 0
      attribute: 0
      script: {fileID: 0}
      typeID: 212
      customType: 23
      isPPtrCurve: 1
    pptrCurveMapping:
    - {fileID: 21300000, guid: 3cddc172c9d342dcbb2b3bb5ceb183ac, type: 3}
    - {fileID: 21300000, guid: 6f13e7cb65f440ada30c41d9787d5f6b, type: 3}
    - {fileID: 21300000, guid: ec94e95e2f4c4cf0aeaefdbe311d7527, type: 3}
    - {fileID: 21300000, guid: a27f48abbbca4886bbb4cb16a874ebd4, type: 3}
    - {fileID: 21300000, guid: 361bd67f7fb64d4db6dcaf90e86f419e, type: 3}
    - {fileID: 21300000, guid: ac6b7fd808af49a79df4d6ba02e91021, type: 3}
    - {fileID: 21300000, guid: a55ba54e5c724a7586e797e71d4fabc0, type: 3}
    - {fileID: 21300000, guid: 5823c9b924df41a6ad68a56195c8a3c6, type: 3}
    - {fileID: 21300000, guid: 3cddc172c9d342dcbb2b3bb5ceb183ac, type: 3}
    - {fileID: 21300000, guid: 6f13e7cb65f440ada30c41d9787d5f6b, type: 3}
    - {fileID: 21300000, guid: ec94e95e2f4c4cf0aeaefdbe311d7527, type: 3}
    - {fileID: 21300000, guid: a27f48abbbca4886bbb4cb16a874ebd4, type: 3}
    - {fileID: 21300000, guid: 361bd67f7fb64d4db6dcaf90e86f419e, type: 3}
    - {fileID: 21300000, guid: ac6b7fd808af49a79df4d6ba02e91021, type: 3}
    - {fileID: 21300000, guid: a55ba54e5c724a7586e797e71d4fabc0, type: 3}
    - {fileID: 21300000, guid: 5823c9b924df41a6ad68a56195c8a3c6, type: 3}
  m_AnimationClipSettings:
    serializedVersion: 2
    m_AdditiveReferencePoseClip: {fileID: 0}
    m_AdditiveReferencePoseTime: 
    m_StartTime: 0
    m_StopTime: 2.133333
    m_OrientationOffsetY: 0
    m_Level: 0
    m_CycleOffset: 0
    m_HasAdditiveReferencePose: 
    m_LoopTime: 1
    m_LoopBlend: 0
    m_LoopBlendOrientation: 0
    m_LoopBlendPositionY: 0
    m_LoopBlendPositionXZ: 0
    m_KeepOriginalOrientation: 0
    m_KeepOriginalPositionY: 1
    m_KeepOriginalPositionXZ: 0
    m_HeightFromFeet: 0
    m_Mirror: 0
    m_HasGenericRootTransform: 0
    m_HasMotionFloatCurves: 0
    m_GenerateMotionCurves: 0
  m_EditorCurves:
  m_Events:
