%YAML 1.1
%TAG !u! tag:unity3d.com,2011:
--- !u!74 &7400000
AnimationClip:
  m_ObjectHideFlags: 0
  m_PrefabParentObject: {fileID: 0}
  m_PrefabInternal: {fileID: 0}
  m_Name: "expl"
  serializedVersion: 6
  m_Legacy: 0
  m_Compressed: 0
  m_UseHighQualityCurve: 1
  m_RotationCurves:
  m_CompressedRotationCurves: []
  m_EulerCurves:
  m_PositionCurves:
  m_ScaleCurves:
  m_FloatCurves:
  m_PPtrCurves:
  - curve:
    - time: 0.03333334
      value: {fileID: 21300010, guid: ab9ed29299c4419ba55477a8bcd79225, type: 3}
    - time: 0.06666667
      value: {fileID: 21300014, guid: ab9ed29299c4419ba55477a8bcd79225, type: 3}
    - time: 0.1
      value: {fileID: 21300006, guid: ab9ed29299c4419ba55477a8bcd79225, type: 3}
    - time: 0.1333333
      value: {fileID: 21300016, guid: ab9ed29299c4419ba55477a8bcd79225, type: 3}
    - time: 0.1666667
      value: {fileID: 21300024, guid: ab9ed29299c4419ba55477a8bcd79225, type: 3}
    - time: 0.2
      value: {fileID: 21300012, guid: ab9ed29299c4419ba55477a8bcd79225, type: 3}
    - time: 0.2333333
      value: {fileID: 21300022, guid: ab9ed29299c4419ba55477a8bcd79225, type: 3}
    - time: 0.2666667
      value: {fileID: 21300000, guid: ab9ed29299c4419ba55477a8bcd79225, type: 3}
    - time: 0.3
      value: {fileID: 21300026, guid: ab9ed29299c4419ba55477a8bcd79225, type: 3}
    - time: 0.3333333
      value: {fileID: 21300020, guid: ab9ed29299c4419ba55477a8bcd79225, type: 3}
    - time: 0.3666667
      value: {fileID: 21300004, guid: ab9ed29299c4419ba55477a8bcd79225, type: 3}
    - time: 0.4
      value: {fileID: 21300002, guid: ab9ed29299c4419ba55477a8bcd79225, type: 3}
    attribute: m_Sprite
    path: 
    classID: 212
    script: {fileID: 0}
  m_SampleRate: 30
  m_WrapMode: 0
  m_Bounds:
    m_Center: {x: 0, y: 0, z: 0}
    m_Extent: {x: 0, y: 0, z: 0}
  m_MuscleClipSize: 2924
  m_MuscleClip:
    serializedVersion: 3
    m_DeltaPose:
      m_RootX:
        t: {x: 0, y: 0, z: 0}
        q: {x: 0, y: 0, z: 0, w: 1}
        s: {x: 1, y: 1, z: 1}
      m_LookAtPosition: {x: 0, y: 0, z: 0}
      m_LookAtWeight: {x: 0, y: 0, z: 0, w: 0}
      m_GoalArray:
      - m_X:
          t: {x: 0, y: 0, z: 0}
          q: {x: 0, y: 0, z: 0, w: 1}
          s: {x: 1, y: 1, z: 1}
          m_Weight: 
          m_WeightR: 0
          m_HintT: {x: 0, y: 0, z: 0}
          m_HintWeightT: 0
      - m_X:
          t: {x: 0, y: 0, z: 0}
          q: {x: 0, y: 0, z: 0, w: 1}
          s: {x: 1, y: 1, z: 1}
          m_Weight: 
          m_WeightR: 0
          m_HintT: {x: 0, y: 0, z: 0}
          m_HintWeightT: 0
      - m_X:
          t: {x: 0, y: 0, z: 0}
          q: {x: 0, y: 0, z: 0, w: 1}
          s: {x: 1, y: 1, z: 1}
          m_Weight: 
          m_WeightR: 0
          m_HintT: {x: 0, y: 0, z: 0}
          m_HintWeightT: 0
      - m_X:
          t: {x: 0, y: 0, z: 0}
          q: {x: 0, y: 0, z: 0, w: 1}
          s: {x: 1, y: 1, z: 1}
          m_Weight: 
          m_WeightR: 0
          m_HintT: {x: 0, y: 0, z: 0}
          m_HintWeightT: 0
      m_LeftHandPose:
        m_GrabX:
          t: {x: 0, y: 0, z: 0}
          q: {x: 0, y: 0, z: 0, w: 1}
          s: {x: 1, y: 1, z: 1}
        m_DoFArray:
        - 0
        - 0
        - 0
        - 0
        - 0
        - 0
        - 0
        - 0
        - 0
        - 0
        - 0
        - 0
        - 0
        - 0
        - 0
        - 0
        - 0
        - 0
        - 0
        - 0
        m_Override: 0
        m_CloseOpen: 0
        m_InOut: 0
        m_Grab: 0
      m_RightHandPose:
        m_GrabX:
          t: {x: 0, y: 0, z: 0}
          q: {x: 0, y: 0, z: 0, w: 1}
          s: {x: 1, y: 1, z: 1}
        m_DoFArray:
        - 0
        - 0
        - 0
        - 0
        - 0
        - 0
        - 0
        - 0
        - 0
        - 0
        - 0
        - 0
        - 0
        - 0
        - 0
        - 0
        - 0
        - 0
        - 0
        - 0
        m_Override: 0
        m_CloseOpen: 0
        m_InOut: 0
        m_Grab: 0
      m_DoFArray:
        - 0
        - 0
        - 0
        - 0
        - 0
        - 0
        - 0
        - 0
        - 0
        - 0
        - 0
        - 0
        - 0
        - 0
        - 0
        - 0
        - 0
        - 0
        - 0
        - 0
        - 0
        - 0
        - 0
        - 0
        - 0
        - 0
        - 0
        - 0
        - 0
        - 0
        - 0
        - 0
        - 0
        - 0
        - 0
        - 0
        - 0
        - 0
        - 0
        - 0
        - 0
        - 0
        - 0
        - 0
        - 0
        - 0
        - 0
        - 0
        - 0
        - 0
        - 0
        - 0
        - 0
        - 0
        - 0
      m_TDoFArray:
      - x: 0
        y: 0
        z: 0
      - x: 0
        y: 0
        z: 0
      - x: 0
        y: 0
        z: 0
      - x: 0
        y: 0
        z: 0
      - x: 0
        y: 0
        z: 0
      - x: 0
        y: 0
        z: 0
      - x: 0
        y: 0
        z: 0
      - x: 0
        y: 0
        z: 0
      - x: 0
        y: 0
        z: 0
      - x: 0
        y: 0
        z: 0
      - x: 0
        y: 0
        z: 0
      - x: 0
        y: 0
        z: 0
      - x: 0
        y: 0
        z: 0
      - x: 0
        y: 0
        z: 0
      - x: 0
        y: 0
        z: 0
      - x: 0
        y: 0
        z: 0
      - x: 0
        y: 0
        z: 0
      - x: 0
        y: 0
        z: 0
      - x: 0
        y: 0
        z: 0
      - x: 0
        y: 0
        z: 0
      - x: 0
        y: 0
        z: 0
    m_StartX:
      t: {x: 0, y: 0, z: 0}
      q: {x: 0, y: 0, z: 0, w: 1}
      s: {x: 1, y: 1, z: 1}
    m_StopX:
      t: {x: 0, y: 0, z: 0}
      q: {x: 0, y: 0, z: 0, w: 1}
      s: {x: 1, y: 1, z: 1}
    m_LeftFootStartX:
      t: {x: 0, y: 0, z: 0}
      q: {x: 0, y: 0, z: 0, w: 1}
      s: {x: 1, y: 1, z: 1}
    m_RightFootStartX:
      t: {x: 0, y: 0, z: 0}
      q: {x: 0, y: 0, z: 0, w: 1}
      s: {x: 1, y: 1, z: 1}
    m_AverageSpeed: {x: 0, y: 0, z: 0}
  m_ClipBindingConstant:
    genericBindings:
    - serializedVersion: 2
      path: 0
      attribute: 0
      script: {fileID: 0}
      typeID: 212
      customType: 23
      isPPtrCurve: 1
    pptrCurveMapping:
    - {fileID: 21300008, guid: ab9ed29299c4419ba55477a8bcd79225, type: 3}
    - {fileID: 21300010, guid: ab9ed29299c4419ba55477a8bcd79225, type: 3}
    - {fileID: 21300014, guid: ab9ed29299c4419ba55477a8bcd79225, type: 3}
    - {fileID: 21300006, guid: ab9ed29299c4419ba55477a8bcd79225, type: 3}
    - {fileID: 21300016, guid: ab9ed29299c4419ba55477a8bcd79225, type: 3}
    - {fileID: 21300024, guid: ab9ed29299c4419ba55477a8bcd79225, type: 3}
    - {fileID: 21300012, guid: ab9ed29299c4419ba55477a8bcd79225, type: 3}
    - {fileID: 21300022, guid: ab9ed29299c4419ba55477a8bcd79225, type: 3}
    - {fileID: 21300000, guid: ab9ed29299c4419ba55477a8bcd79225, type: 3}
    - {fileID: 21300026, guid: ab9ed29299c4419ba55477a8bcd79225, type: 3}
    - {fileID: 21300020, guid: ab9ed29299c4419ba55477a8bcd79225, type: 3}
    - {fileID: 21300004, guid: ab9ed29299c4419ba55477a8bcd79225, type: 3}
    - {fileID: 21300002, guid: ab9ed29299c4419ba55477a8bcd79225, type: 3}
  m_AnimationClipSettings:
    serializedVersion: 2
    m_AdditiveReferencePoseClip: {fileID: 0}
    m_AdditiveReferencePoseTime: 
    m_StartTime: 0
    m_StopTime: 0.4333333
    m_OrientationOffsetY: 0
    m_Level: 0
    m_CycleOffset: 0
    m_HasAdditiveReferencePose: 
    m_LoopTime: 0
    m_LoopBlend: 0
    m_LoopBlendOrientation: 0
    m_LoopBlendPositionY: 0
    m_LoopBlendPositionXZ: 0
    m_KeepOriginalOrientation: 0
    m_KeepOriginalPositionY: 1
    m_KeepOriginalPositionXZ: 0
    m_HeightFromFeet: 0
    m_Mirror: 0
    m_HasGenericRootTransform: 0
    m_HasMotionFloatCurves: 0
    m_GenerateMotionCurves: 0
  m_EditorCurves:
  m_Events:
