%YAML 1.1
%TAG !u! tag:unity3d.com,2011:
--- !u!74 &7400000
AnimationClip:
  m_ObjectHideFlags: 0
  m_PrefabParentObject: {fileID: 0}
  m_PrefabInternal: {fileID: 0}
  m_Name: "popupPerfect"
  serializedVersion: 6
  m_Legacy: 1
  m_Compressed: 0
  m_UseHighQualityCurve: 1
  m_RotationCurves:
  m_CompressedRotationCurves: []
  m_EulerCurves:
  m_PositionCurves:
  m_ScaleCurves:
  - curve:
      serializedVersion: 2
      m_Curve:
      - serializedVersion: 3
        time: 0
        value: {x: 0.5, y: 0.5960154, z: 1}
        inSlope: {x: 6, y: 5.999999, z: 0}
        outSlope: {x: 6, y: 5.999999, z: 0}
        weightedMode: 0
        inWeight: {x: 0.3333333, y: 0.3333333, z: 0.3333333}
        outWeight: {x: 0.3333333, y: 0.3333333, z: 0.3333333}
      - serializedVersion: 3
        time: 0.08333334
        value: {x: 1, y: 1.096015, z: 1}
        inSlope: {x: 3, y: 3, z: 0}
        outSlope: {x: 3, y: 3, z: 0}
        weightedMode: 0
        inWeight: {x: 0.3333333, y: 0.3333333, z: 0.3333333}
        outWeight: {x: 0.3333333, y: 0.3333333, z: 0.3333333}
      - serializedVersion: 3
        time: 0.4166667
        value: {x: 1, y: 1.096015, z: 1}
        inSlope: {x: -0.003360271, y: -0.003347397, z: 0}
        outSlope: {x: -0.003360271, y: -0.003347397, z: 0}
        weightedMode: 0
        inWeight: {x: 0.3333333, y: 0.3333333, z: 0.3333333}
        outWeight: {x: 0.3333333, y: 0.3333333, z: 0.3333333}
      - serializedVersion: 3
        time: 1
        value: {x: 0.9960797, y: 1.09211, z: 1}
        inSlope: {x: -3.593776, y: 3.493641, z: 0}
        outSlope: {x: -3.593776, y: 3.493641, z: 0}
        weightedMode: 0
        inWeight: {x: 0.3333333, y: 0.3333333, z: 0.3333333}
        outWeight: {x: 0.3333333, y: 0.3333333, z: 0.3333333}
      - serializedVersion: 3
        time: 1.166667
        value: {x: 0.9763793, y: 1.100162, z: 1}
        inSlope: {x: 5.662266, y: -3.153547, z: 0}
        outSlope: {x: 5.662266, y: -3.153547, z: 0}
        weightedMode: 0
        inWeight: {x: 0.3333333, y: 0.3333333, z: 0.3333333}
        outWeight: {x: 0.3333333, y: 0.3333333, z: 0.3333333}
      m_PreInfinity: 2
      m_PostInfinity: 2
      m_RotationOrder: 4
    path: 
  - curve:
      serializedVersion: 2
      m_Curve:
      - serializedVersion: 3
        time: 0
        value: {x: 0.5, y: 0.5960154, z: 1}
        inSlope: {x: 6, y: 5.999999, z: 0}
        outSlope: {x: 6, y: 5.999999, z: 0}
        weightedMode: 0
        inWeight: { x: 0.3333333, y: 0.3333333, z: 0.3333333}
        outWeight: { x: 0.3333333, y: 0.3333333, z: 0.3333333}
      - serializedVersion: 3
        time: 0.08333334
        value: {x: 1, y: 1.096015, z: 1}
        inSlope: {x: 3, y: 3, z: 0}
        outSlope: {x: 3, y: 3, z: 0}
        weightedMode: 0
        inWeight: { x: 0.3333333, y: 0.3333333, z: 0.3333333}
        outWeight: { x: 0.3333333, y: 0.3333333, z: 0.3333333}
      - serializedVersion: 3
        time: 0.4166667
        value: {x: 1, y: 1.096015, z: 1}
        inSlope: {x: -0.003360271, y: -0.003347397, z: 0}
        outSlope: {x: -0.003360271, y: -0.003347397, z: 0}
        weightedMode: 0
        inWeight: { x: 0.3333333, y: 0.3333333, z: 0.3333333}
        outWeight: { x: 0.3333333, y: 0.3333333, z: 0.3333333}
      - serializedVersion: 3
        time: 1
        value: {x: 0.9960797, y: 1.09211, z: 1}
        inSlope: {x: -3.593776, y: 3.493641, z: 0}
        outSlope: {x: -3.593776, y: 3.493641, z: 0}
        weightedMode: 0
        inWeight: { x: 0.3333333, y: 0.3333333, z: 0.3333333}
        outWeight: { x: 0.3333333, y: 0.3333333, z: 0.3333333}
      - serializedVersion: 3
        time: 1.166667
        value: {x: 0.9763793, y: 1.100162, z: 1}
        inSlope: {x: 5.662266, y: -3.153547, z: 0}
        outSlope: {x: 5.662266, y: -3.153547, z: 0}
        weightedMode: 0
        inWeight: { x: 0.3333333, y: 0.3333333, z: 0.3333333}
        outWeight: { x: 0.3333333, y: 0.3333333, z: 0.3333333}
      m_PreInfinity: 2
      m_PostInfinity: 2
      m_RotationOrder: 4
    path: 
  m_FloatCurves:
  - curve:
      serializedVersion: 2
      m_Curve:
      - serializedVersion: 2
        time: 1
        value: -29.83015
        inSlope: 0
        outSlope: 0
        tangentMode: 103
      - serializedVersion: 2
        time: 1.166667
        value: 1000
        inSlope: 0
        outSlope: 0
        tangentMode: 103
      m_PreInfinity: 2
      m_PostInfinity: 2
      m_RotationOrder: 4
    attribute: "m_AnchoredPosition.y"
    path: 
    classID: 224
    script: {fileID: 0}
  m_PPtrCurves:
  m_SampleRate: 60
  m_WrapMode: 0
  m_Bounds:
    m_Center: {x: 0, y: 0, z: 0}
    m_Extent: {x: 0, y: 0, z: 0}
  m_MuscleClipSize: 0
  m_MuscleClip:
    serializedVersion: 3
    m_DeltaPose:
      m_RootX:
        t: {x: 0, y: 0, z: 0}
        q: {x: 0, y: 0, z: 0, w: 1}
        s: {x: 1, y: 1, z: 1}
      m_LookAtPosition: {x: 0, y: 0, z: 0}
      m_LookAtWeight: {x: 0, y: 0, z: 0, w: 0}
      m_GoalArray:
      - m_X:
          t: {x: 0, y: 0, z: 0}
          q: {x: 0, y: 0, z: 0, w: 1}
          s: {x: 1, y: 1, z: 1}
          m_Weight: 
          m_WeightR: 0
          m_HintT: {x: 0, y: 0, z: 0}
          m_HintWeightT: 0
      - m_X:
          t: {x: 0, y: 0, z: 0}
          q: {x: 0, y: 0, z: 0, w: 1}
          s: {x: 1, y: 1, z: 1}
          m_Weight: 
          m_WeightR: 0
          m_HintT: {x: 0, y: 0, z: 0}
          m_HintWeightT: 0
      - m_X:
          t: {x: 0, y: 0, z: 0}
          q: {x: 0, y: 0, z: 0, w: 1}
          s: {x: 1, y: 1, z: 1}
          m_Weight: 
          m_WeightR: 0
          m_HintT: {x: 0, y: 0, z: 0}
          m_HintWeightT: 0
      - m_X:
          t: {x: 0, y: 0, z: 0}
          q: {x: 0, y: 0, z: 0, w: 1}
          s: {x: 1, y: 1, z: 1}
          m_Weight: 
          m_WeightR: 0
          m_HintT: {x: 0, y: 0, z: 0}
          m_HintWeightT: 0
      m_LeftHandPose:
        m_GrabX:
          t: {x: 0, y: 0, z: 0}
          q: {x: 0, y: 0, z: 0, w: 1}
          s: {x: 1, y: 1, z: 1}
        m_DoFArray:
        - 0
        - 0
        - 0
        - 0
        - 0
        - 0
        - 0
        - 0
        - 0
        - 0
        - 0
        - 0
        - 0
        - 0
        - 0
        - 0
        - 0
        - 0
        - 0
        - 0
        m_Override: 0
        m_CloseOpen: 0
        m_InOut: 0
        m_Grab: 0
      m_RightHandPose:
        m_GrabX:
          t: {x: 0, y: 0, z: 0}
          q: {x: 0, y: 0, z: 0, w: 1}
          s: {x: 1, y: 1, z: 1}
        m_DoFArray:
        - 0
        - 0
        - 0
        - 0
        - 0
        - 0
        - 0
        - 0
        - 0
        - 0
        - 0
        - 0
        - 0
        - 0
        - 0
        - 0
        - 0
        - 0
        - 0
        - 0
        m_Override: 0
        m_CloseOpen: 0
        m_InOut: 0
        m_Grab: 0
      m_DoFArray:
        - 0
        - 0
        - 0
        - 0
        - 0
        - 0
        - 0
        - 0
        - 0
        - 0
        - 0
        - 0
        - 0
        - 0
        - 0
        - 0
        - 0
        - 0
        - 0
        - 0
        - 0
        - 0
        - 0
        - 0
        - 0
        - 0
        - 0
        - 0
        - 0
        - 0
        - 0
        - 0
        - 0
        - 0
        - 0
        - 0
        - 0
        - 0
        - 0
        - 0
        - 0
        - 0
        - 0
        - 0
        - 0
        - 0
        - 0
        - 0
        - 0
        - 0
        - 0
        - 0
        - 0
        - 0
        - 0
      m_TDoFArray:
      - x: 0
        y: 0
        z: 0
      - x: 0
        y: 0
        z: 0
      - x: 0
        y: 0
        z: 0
      - x: 0
        y: 0
        z: 0
      - x: 0
        y: 0
        z: 0
      - x: 0
        y: 0
        z: 0
      - x: 0
        y: 0
        z: 0
      - x: 0
        y: 0
        z: 0
      - x: 0
        y: 0
        z: 0
      - x: 0
        y: 0
        z: 0
      - x: 0
        y: 0
        z: 0
      - x: 0
        y: 0
        z: 0
      - x: 0
        y: 0
        z: 0
      - x: 0
        y: 0
        z: 0
      - x: 0
        y: 0
        z: 0
      - x: 0
        y: 0
        z: 0
      - x: 0
        y: 0
        z: 0
      - x: 0
        y: 0
        z: 0
      - x: 0
        y: 0
        z: 0
      - x: 0
        y: 0
        z: 0
      - x: 0
        y: 0
        z: 0
    m_StartX:
      t: {x: 0, y: 0, z: 0}
      q: {x: 0, y: 0, z: 0, w: 1}
      s: {x: 1, y: 1, z: 1}
    m_StopX:
      t: {x: 0, y: 0, z: 0}
      q: {x: 0, y: 0, z: 0, w: 1}
      s: {x: 1, y: 1, z: 1}
    m_LeftFootStartX:
      t: {x: 0, y: 0, z: 0}
      q: {x: 0, y: 0, z: 0, w: 1}
      s: {x: 1, y: 1, z: 1}
    m_RightFootStartX:
      t: {x: 0, y: 0, z: 0}
      q: {x: 0, y: 0, z: 0, w: 1}
      s: {x: 1, y: 1, z: 1}
    m_AverageSpeed: {x: 0, y: 0, z: 0}
  m_ClipBindingConstant:
    genericBindings:
    pptrCurveMapping:
  m_AnimationClipSettings:
    serializedVersion: 2
    m_AdditiveReferencePoseClip: {fileID: 0}
    m_AdditiveReferencePoseTime: 
    m_StartTime: 0
    m_StopTime: 1
    m_OrientationOffsetY: 0
    m_Level: 0
    m_CycleOffset: 0
    m_HasAdditiveReferencePose: 
    m_LoopTime: 0
    m_LoopBlend: 0
    m_LoopBlendOrientation: 0
    m_LoopBlendPositionY: 0
    m_LoopBlendPositionXZ: 0
    m_KeepOriginalOrientation: 0
    m_KeepOriginalPositionY: 1
    m_KeepOriginalPositionXZ: 0
    m_HeightFromFeet: 0
    m_Mirror: 0
    m_HasGenericRootTransform: 0
    m_HasMotionFloatCurves: 0
    m_GenerateMotionCurves: 0
  m_EditorCurves:
  - curve:
      serializedVersion: 2
      m_Curve:
      - serializedVersion: 2
        time: 0
        value: 0.5
        inSlope: 6
        outSlope: 6
        tangentMode: 0
      - serializedVersion: 2
        time: 0.08333334
        value: 1
        inSlope: 3
        outSlope: 3
        tangentMode: 0
      - serializedVersion: 2
        time: 0.4166667
        value: 1
        inSlope: -0.003360271
        outSlope: -0.003360271
        tangentMode: 0
      - serializedVersion: 2
        time: 1
        value: 0.9960797
        inSlope: -3.593776
        outSlope: -3.593776
        tangentMode: 0
      - serializedVersion: 2
        time: 1.166667
        value: 0.9763793
        inSlope: 5.662266
        outSlope: 5.662266
        tangentMode: 0
      m_PreInfinity: 2
      m_PostInfinity: 2
      m_RotationOrder: 4
    attribute: m_LocalScale.x
    path: 
    classID: 4
    script: 
  - curve:
      serializedVersion: 2
      m_Curve:
      - serializedVersion: 2
        time: 0
        value: 0.5960154
        inSlope: 5.999999
        outSlope: 5.999999
        tangentMode: 0
      - serializedVersion: 2
        time: 0.08333334
        value: 1.096015
        inSlope: 3
        outSlope: 3
        tangentMode: 0
      - serializedVersion: 2
        time: 0.4166667
        value: 1.096015
        inSlope: -0.003347397
        outSlope: -0.003347397
        tangentMode: 0
      - serializedVersion: 2
        time: 1
        value: 1.09211
        inSlope: 3.493641
        outSlope: 3.493641
        tangentMode: 0
      - serializedVersion: 2
        time: 1.166667
        value: 1.100162
        inSlope: -3.153547
        outSlope: -3.153547
        tangentMode: 0
      m_PreInfinity: 2
      m_PostInfinity: 2
      m_RotationOrder: 4
    attribute: m_LocalScale.y
    path: 
    classID: 4
    script: 
  - curve:
      serializedVersion: 2
      m_Curve:
      - serializedVersion: 2
        time: 0
        value: 1
        inSlope: 0
        outSlope: 0
        tangentMode: 0
      - serializedVersion: 2
        time: 0.08333334
        value: 1
        inSlope: 0
        outSlope: 0
        tangentMode: 0
      - serializedVersion: 2
        time: 0.4166667
        value: 1
        inSlope: 0
        outSlope: 0
        tangentMode: 0
      - serializedVersion: 2
        time: 1
        value: 1
        inSlope: 0
        outSlope: 0
        tangentMode: 0
      - serializedVersion: 2
        time: 1.166667
        value: 1
        inSlope: 0
        outSlope: 0
        tangentMode: 0
      m_PreInfinity: 2
      m_PostInfinity: 2
      m_RotationOrder: 4
    attribute: m_LocalScale.z
    path: 
    classID: 4
    script: 
  m_Events:
  - time: 0
    functionName: "Stop"
    data: 
    objectReferenceParameter: {fileID: 0}
    floatParameter: 0
    intParameter: 0
    messageOptions: 0
  - time: 1.166667
    functionName: "Stop"
    data: 
    objectReferenceParameter: {fileID: 0}
    floatParameter: 0
    intParameter: 0
    messageOptions: 0
