MODE 2
SIZE 11/60
LIMIT 0/56
COLOR LIMIT 4
STARS 1500/2800/4000
CollectNo  14
0 6 0 0 6 6 6 0 0 6 0
0 3 0 3 0 0 6 0 6 0 0
0 0 3 3 0 0 0 6 6 0 0
0 0 10 0 0 0 0 13 0 0 0
0 0 3 3 0 0 0 6 6 0 0
0 3 0 3 0 0 6 0 6 0 0
6 6 6 6 6 6 6 6 6 6 6
0 6 0 6 0 0 6 0 6 0 0
0 0 6 6 0 0 0 6 6 0 0
0 0 13 0 0 0 0 13 0 0 0
0 0 6 6 0 0 0 6 6 0 0
0 6 0 6 0 0 6 0 6 0 0
6 6 6 6 6 6 6 6 6 6 6
0 6 0 6 0 0 2 0 2 0 0
0 0 6 6 0 0 0 2 2 0 0
0 0 13 0 0 0 0 9 0 0 0
0 0 6 6 0 0 0 2 2 0 0
0 6 0 6 0 0 2 0 2 0 0
6 6 6 6 6 6 6 6 6 6 6
0 6 0 6 0 0 6 0 6 0 0
0 0 6 6 0 0 0 6 6 0 0
0 0 13 0 0 0 0 13 0 0 0
0 0 6 6 0 0 0 6 6 0 0
0 6 0 6 0 0 6 0 6 0 0
6 6 6 6 6 6 6 6 6 6 6
0 5 0 5 0 0 6 0 6 0 0
0 0 5 5 0 0 0 6 6 0 0
0 0 12 0 0 0 0 13 0 0 0
0 0 5 5 0 0 0 6 6 0 0
0 5 0 5 0 0 6 0 6 0 0
6 6 6 6 6 6 6 6 6 6 6
0 6 0 6 0 0 6 0 6 0 0
0 0 6 6 0 0 0 6 6 0 0
0 0 13 0 0 0 0 13 0 0 0
0 0 6 6 0 0 0 6 6 0 0
0 6 0 6 0 0 6 0 6 0 0
6 6 6 6 6 6 6 6 6 6 6
0 6 0 6 0 0 4 0 4 0 0
0 0 6 6 0 0 0 4 4 0 0
0 0 13 0 0 0 0 11 0 0 0
0 0 6 6 0 0 0 4 4 0 0
0 6 0 6 0 0 4 0 4 0 0
6 6 6 6 6 6 6 6 6 6 6
6 6 6 6 6 6 6 6 6 6 0
0 0 0 0 0 0 0 0 0 0 0
0 0 0 0 0 0 0 0 0 0 0
0 0 0 0 0 0 0 0 0 0 0
0 0 0 0 0 0 0 0 0 0 0
0 0 0 0 0 0 0 0 0 0 0
0 0 0 0 0 0 0 0 0 0 0
0 0 0 0 0 0 0 0 0 0 0
0 0 0 0 0 0 0 0 0 0 0
0 0 0 0 0 0 0 0 0 0 0
0 0 0 0 0 0 0 0 0 0 0
0 0 0 0 0 0 0 0 0 0 0
0 0 0 0 0 0 0 0 0 0 0
0 0 0 0 0 0 0 0 0 0 0
0 0 0 0 0 0 0 0 0 0 0
0 0 0 0 0 0 0 0 0 0 0
0 0 0 0 0 0 0 0 0 0 0