MODE 2
SIZE 11/30
LIMIT 0/54
COLOR LIMIT 4
STARS 3500/5000/10000
CollectNo  9
13 6 6 6 6 6 6 6 6 6 13
6 0 6 0 0 0 0 6 0 6 0
0 6 0 6 0 0 0 6 0 6 0
0 6 0 6 0 0 6 0 6 0 0
0 0 6 0 6 0 6 0 6 0 0
13 6 6 6 6 6 6 6 6 13 0
0 6 0 6 0 13 0 6 0 6 0
0 6 0 6 6 6 6 0 6 0 0
0 0 6 0 6 0 6 0 6 0 0
0 0 6 0 6 6 0 6 0 0 0
0 0 0 6 6 6 6 6 0 0 0
0 0 0 6 13 13 6 0 0 0 0
0 0 0 0 6 6 6 0 0 0 0
0 0 0 6 6 6 6 0 0 0 0
0 0 0 6 0 13 0 6 0 0 0
0 0 6 0 6 6 0 6 0 0 0
0 0 6 0 6 0 6 0 6 0 0
0 6 0 6 6 6 6 0 6 0 0
0 6 0 6 0 13 0 6 0 6 0
6 6 6 6 6 6 6 6 6 6 0
0 0 6 0 6 0 6 0 6 0 0
0 6 0 6 0 0 6 0 6 0 0
0 6 0 6 0 0 0 6 0 6 0
6 0 6 0 0 0 0 6 0 6 0
6 6 6 6 6 6 6 6 6 6 6
0 0 0 0 0 0 0 0 0 0 0
0 0 0 0 0 0 0 0 0 0 0
0 0 0 0 0 0 0 0 0 0 0
0 0 0 0 0 0 0 0 0 0 0
0 0 0 0 0 0 0 0 0 0 0
0 0 0 0 0 0 0 0 0 0 0
0 0 0 0 0 0 0 0 0 0 0
0 0 0 0 0 0 0 0 0 0 0
0 0 0 0 0 0 0 0 0 0 0
0 0 0 0 0 0 0 0 0 0 0
0 0 0 0 0 0 0 0 0 0 0
0 0 0 0 0 0 0 0 0 0 0
0 0 0 0 0 0 0 0 0 0 0
0 0 0 0 0 0 0 0 0 0 0
0 0 0 0 0 0 0 0 0 0 0
0 0 0 0 0 0 0 0 0 0 0
0 0 0 0 0 0 0 0 0 0 0
0 0 0 0 0 0 0 0 0 0 0
0 0 0 0 0 0 0 0 0 0 0
0 0 0 0 0 0 0 0 0 0 0
0 0 0 0 0 0 0 0 0 0 0
0 0 0 0 0 0 0 0 0 0 0
0 0 0 0 0 0 0 0 0 0 0
0 0 0 0 0 0 0 0 0 0 0
0 0 0 0 0 0 0 0 0 0 0
0 0 0 0 0 0 0 0 0 0 0
0 0 0 0 0 0 0 0 0 0 0
0 0 0 0 0 0 0 0 0 0 0
0 0 0 0 0 0 0 0 0 0 0
0 0 0 0 0 0 0 0 0 0 0
0 0 0 0 0 0 0 0 0 0 0
0 0 0 0 0 0 0 0 0 0 0
0 0 0 0 0 0 0 0 0 0 0
0 0 0 0 0 0 0 0 0 0 0
0 0 0 0 0 0 0 0 0 0 0