MODE 2
SIZE 11/60
LIMIT 0/72
COLOR LIMIT 5
STARS 2500/9000/15000
CollectNo  19
6 13 6 6 6 6 6 6 6 13 6
6 6 0 0 0 0 0 0 6 6 0
13 6 0 0 0 0 0 0 0 6 13
6 6 6 6 6 6 6 6 6 6 0
0 6 6 6 6 6 6 6 6 6 0
0 6 6 6 6 13 6 6 6 0 0
0 0 6 6 6 6 6 6 6 0 0
0 0 6 6 6 6 6 6 0 0 0
0 0 0 6 6 6 6 6 0 0 0
0 0 0 6 6 6 6 0 0 0 0
0 0 0 0 6 6 6 0 0 0 0
0 0 0 0 13 13 0 0 0 0 0
0 6 6 6 6 6 6 6 6 6 0
0 6 1 1 13 13 1 1 6 0 0
0 0 6 1 0 0 0 1 6 0 0
0 0 6 1 0 0 1 6 0 0 0
0 0 0 6 1 0 1 6 0 0 0
0 0 0 6 1 1 6 0 0 0 0
0 0 0 0 6 1 6 0 0 0 0
0 0 0 0 13 13 0 0 0 0 0
6 6 6 6 6 6 6 6 6 6 6
6 6 0 0 0 0 0 0 6 6 0
0 13 6 6 6 6 6 6 6 13 0
0 0 6 2 2 2 2 6 0 0 0
0 0 0 6 2 6 2 6 0 0 0
0 0 0 6 2 2 6 0 0 0 0
13 0 0 0 6 2 6 0 0 0 13
6 0 0 0 6 6 0 0 0 6 0
0 6 6 6 6 6 6 6 6 6 0
0 0 0 0 6 6 0 0 0 0 0
0 0 0 0 6 5 6 0 0 0 0
0 0 0 6 5 5 6 0 0 0 0
0 0 0 6 5 6 5 6 0 0 0
0 0 6 5 5 5 5 6 0 0 0
0 13 6 6 6 6 6 6 6 13 0
6 6 0 0 0 0 0 0 6 6 0
6 6 6 6 6 6 6 6 6 6 6
0 0 0 0 6 6 0 0 0 0 0
0 0 0 0 6 6 6 0 0 0 0
0 0 0 6 6 6 6 0 0 0 0
0 0 0 6 6 0 6 6 0 0 0
0 0 6 6 6 6 6 6 0 0 0
0 0 6 6 6 13 6 6 6 0 0
0 6 6 0 6 6 0 6 6 0 0
0 6 6 0 0 0 0 0 6 6 0
6 6 6 6 6 6 6 6 6 6 0
0 3 3 3 3 3 3 3 3 3 0
3 4 4 4 4 11 4 4 4 3 0
0 3 3 3 3 3 3 3 3 3 0
0 0 0 0 0 0 0 0 0 0 0
0 0 0 0 0 0 0 0 0 0 0
0 0 0 0 0 0 0 0 0 0 0
0 0 0 0 0 0 0 0 0 0 0
0 0 0 0 0 0 0 0 0 0 0
0 0 0 0 0 0 0 0 0 0 0
0 0 0 0 0 0 0 0 0 0 0
0 0 0 0 0 0 0 0 0 0 0
0 0 0 0 0 0 0 0 0 0 0
0 0 0 0 0 0 0 0 0 0 0
0 0 0 0 0 0 0 0 0 0 0