MODE 2
SIZE 11/30
LIMIT 0/25
COLOR LIMIT 3
STARS 2000/6000/9000
CollectNo  6
0 0 2 0 0 0 2 1 0 0 0
0 0 2 0 0 0 2 1 0 0 0
0 3 3 2 0 2 3 3 1 0 1
3 0 0 3 9 3 0 0 3 10 0
3 0 0 3 11 3 0 0 3 12 0
1 10 3 4 0 4 10 3 5 0 5
0 1 4 0 0 0 4 5 0 0 0
0 1 4 0 0 0 4 5 0 0 0
1 0 0 4 0 4 0 0 5 0 5
0 2 0 0 4 0 3 0 0 5 0
2 0 2 0 0 3 0 3 0 0 0
0 0 0 2 3 0 0 0 3 0 0
0 0 0 2 3 0 0 0 3 0 0
2 0 2 0 0 3 0 3 0 0 0
0 2 0 0 0 0 3 0 0 0 0
0 0 0 0 0 0 0 0 0 0 0
0 0 0 0 0 0 0 0 0 0 0
0 0 0 0 0 0 0 0 0 0 0
0 0 0 0 0 0 0 0 0 0 0
0 0 0 0 0 0 0 0 0 0 0
0 0 0 0 0 0 0 0 0 0 0
0 0 0 0 0 0 0 0 0 0 0
0 0 0 0 0 0 0 0 0 0 0
0 0 0 0 0 0 0 0 0 0 0
0 0 0 0 0 0 0 0 0 0 0
0 0 0 0 0 0 0 0 0 0 0
0 0 0 0 0 0 0 0 0 0 0
0 0 0 0 0 0 0 0 0 0 0
0 0 0 0 0 0 0 0 0 0 0
0 0 0 0 0 0 0 0 0 0 0
0 0 0 0 0 0 0 0 0 0 0
0 0 0 0 0 0 0 0 0 0 0
0 0 0 0 0 0 0 0 0 0 0
0 0 0 0 0 0 0 0 0 0 0
0 0 0 0 0 0 0 0 0 0 0
0 0 0 0 0 0 0 0 0 0 0
0 0 0 0 0 0 0 0 0 0 0
0 0 0 0 0 0 0 0 0 0 0
0 0 0 0 0 0 0 0 0 0 0
0 0 0 0 0 0 0 0 0 0 0
0 0 0 0 0 0 0 0 0 0 0
0 0 0 0 0 0 0 0 0 0 0
0 0 0 0 0 0 0 0 0 0 0
0 0 0 0 0 0 0 0 0 0 0
0 0 0 0 0 0 0 0 0 0 0
0 0 0 0 0 0 0 0 0 0 0