MODE 2
SIZE 11/30
LIMIT 0/25
COLOR LIMIT 4
STARS 2500/5000/7500
CollectNo  15
10 8 11 10 12 0 12 10 11 18 10
3 3 1 4 3 12 3 4 1 3 3
0 3 3 1 4 3 4 1 3 3 0
0 0 3 3 1 4 1 3 3 0 0
5 0 0 4 0 1 0 4 0 0 5
0 5 4 4 4 5 4 0 4 5 0
0 5 4 4 4 5 4 0 4 5 0
5 0 0 4 0 0 0 4 0 0 5
0 5 4 4 2 2 2 2 2 2 2
4 4 4 2 2 2 2 2 2 2 2
2 2 2 2 8 1 1 1 1 1 1
2 2 2 2 1 1 1 1 1 1 1
1 1 1 1 1 3 3 10 3 3 3
1 1 1 1 1 3 3 3 3 3 3
0 0 5 12 0 0 0 8 1 0 0
0 1 1 0 2 2 0 5 5 0 0
0 1 0 1 2 0 2 5 0 5 0
0 8 1 0 2 2 0 12 5 0 0
0 0 0 0 0 0 0 0 0 0 0
0 0 0 0 0 0 0 0 0 0 0
0 0 0 0 0 0 0 0 0 0 0
0 0 0 0 0 0 0 0 0 0 0
0 0 0 0 0 0 0 0 0 0 0
0 0 0 0 0 0 0 0 0 0 0
0 0 0 0 0 0 0 0 0 0 0
0 0 0 0 0 0 0 0 0 0 0
0 0 0 0 0 0 0 0 0 0 0
0 0 0 0 0 0 0 0 0 0 0
0 0 0 0 0 0 0 0 0 0 0
0 0 0 0 0 0 0 0 0 0 0
0 0 0 0 0 0 0 0 0 0 0
0 0 0 0 0 0 0 0 0 0 0
0 0 0 0 0 0 0 0 0 0 0
0 0 0 0 0 0 0 0 0 0 0
0 0 0 0 0 0 0 0 0 0 0
0 0 0 0 0 0 0 0 0 0 0
0 0 0 0 0 0 0 0 0 0 0
0 0 0 0 0 0 0 0 0 0 0
0 0 0 0 0 0 0 0 0 0 0
0 0 0 0 0 0 0 0 0 0 0
0 0 0 0 0 0 0 0 0 0 0
0 0 0 0 0 0 0 0 0 0 0
0 0 0 0 0 0 0 0 0 0 0
0 0 0 0 0 0 0 0 0 0 0
0 0 0 0 0 0 0 0 0 0 0
0 0 0 0 0 0 0 0 0 0 0
0 0 0 0 0 0 0 0 0 0 0
0 0 0 0 0 0 0 0 0 0 0
0 0 0 0 0 0 0 0 0 0 0
0 0 0 0 0 0 0 0 0 0 0
0 0 0 0 0 0 0 0 0 0 0
0 0 0 0 0 0 0 0 0 0 0
0 0 0 0 0 0 0 0 0 0 0
0 0 0 0 0 0 0 0 0 0 0
0 0 0 0 0 0 0 0 0 0 0
0 0 0 0 0 0 0 0 0 0 0
0 0 0 0 0 0 0 0 0 0 0
0 0 0 0 0 0 0 0 0 0 0
0 0 0 0 0 0 0 0 0 0 0
0 0 0 0 0 0 0 0 0 0 0