MODE 0
SIZE 9/30
LIMIT 0/26 
COLOR LIMIT 9
STARS 360/1800/3600
CollectNo  8
4 0 4 12 5 3 3 4 0
4 4 10 3 0 4 0 1 0
0 4 21 13 13 13 4 0 1
0 3 21 4 0 4 2 2 0
3 3 1 20 20 4 0 5 12
3 3 1 0 11 0 4 5 5
0 3 3 0 0 2 0 4 5
3 0 3 3 3 0 2 3 3
0 4 4 4 0 5 5 1 8
0 11 4 3 30 10 3 3 1
4 4 4 4 3 3 0 1 0
0 5 0 1 1 0 1 0 4
0 0 5 12 1 5 5 5 0
0 4 0 4 0 0 0 0 5
0 0 4 0 4 0 1 5 0
0 0 3 3 3 0 1 0 3
0 0 0 5 5 0 0 0 3
0 0 3 3 0 0 4 11 0
0 0 3 0 3 0 0 4 0
0 0 0 0 0 0 0 0 0
0 0 0 0 0 0 0 0 0
0 0 0 0 0 0 0 0 0
0 0 0 0 0 0 0 0 0
0 0 0 0 0 0 0 0 0
0 0 0 0 0 0 0 0 0
0 0 0 0 0 0 0 0 0
0 0 0 0 0 0 0 0 0
0 0 0 0 0 0 0 0 0
0 0 0 0 0 0 0 0 0
0 0 0 0 0 0 0 0 0
0 0 0 0 0 0 0 0 0
0 0 0 0 0 0 0 0 0
0 0 0 0 0 0 0 0 0
0 0 0 0 0 0 0 0 0
0 0 0 0 0 0 0 0 0
0 0 0 0 0 0 0 0 0
0 0 0 0 0 0 0 0 0
0 0 0 0 0 0 0 0 0
0 0 0 0 0 0 0 0 0
0 0 0 0 0 0 0 0 0
0 0 0 0 0 0 0 0 0
0 0 0 0 0 0 0 0 0
0 0 0 0 0 0 0 0 0
0 0 0 0 0 0 0 0 0
0 0 0 0 0 0 0 0 0
0 0 0 0 0 0 0 0 0
0 0 0 0 0 0 0 0 0
0 0 0 0 0 0 0 0 0
0 0 0 0 0 0 0 0 0
0 0 0 0 0 0 0 0 0
0 0 0 0 0 0 0 0 0
0 0 0 0 0 0 0 0 0
0 0 0 0 0 0 0 0 0
0 0 0 0 0 0 0 0 0
0 0 0 0 0 0 0 0 0
0 0 0 0 0 0 0 0 0
0 0 0 0 0 0 0 0 0
0 0 0 0 0 0 0 0 0
0 0 0 0 0 0 0 0 0
0 0 0 0 0 0 0 0 0