MODE 0
SIZE 9/30
LIMIT 0/60
COLOR LIMIT 9
STARS 700/3500/7000
CollectNo  10
0 0 0 5 12 0 12 5 0
0 0 5 4 4 35 4 4 5
0 5 4 19 19 10 10 10 4
5 4 1 1 2 10 2 1 1
0 4 10 20 3 5 3 2 1
0 1 2 21 0 5 0 21 2
1 2 10 0 0 5 0 0 10
2 3 0 5 0 5 0 5 0
3 5 5 5 0 5 0 5 5
2 3 0 4 4 5 4 4 0
1 2 3 22 22 12 4 4 3
5 1 2 3 0 5 0 3 2
5 1 1 2 10 5 3 2 1
4 5 1 1 2 3 2 1 1
0 4 5 5 1 1 1 5 5
0 0 4 0 0 1 0 0 4
0 0 0 6 6 0 6 6 0
0 6 6 6 0 0 6 6 6
0 0 0 0 0 0 0 0 0
0 0 0 0 0 0 0 0 0
0 0 0 0 0 0 0 0 0
0 0 0 0 0 0 0 0 0
0 0 0 0 0 0 0 0 0
0 0 0 0 0 0 0 0 0
0 0 0 0 0 0 0 0 0
0 0 0 0 0 0 0 0 0
0 0 0 0 0 0 0 0 0
0 0 0 0 0 0 0 0 0
0 0 0 0 0 0 0 0 0
0 0 0 0 0 0 0 0 0
0 0 0 0 0 0 0 0 0
0 0 0 0 0 0 0 0 0
0 0 0 0 0 0 0 0 0
0 0 0 0 0 0 0 0 0
0 0 0 0 0 0 0 0 0
0 0 0 0 0 0 0 0 0
0 0 0 0 0 0 0 0 0
0 0 0 0 0 0 0 0 0
0 0 0 0 0 0 0 0 0
0 0 0 0 0 0 0 0 0
0 0 0 0 0 0 0 0 0
0 0 0 0 0 0 0 0 0
0 0 0 0 0 0 0 0 0
0 0 0 0 0 0 0 0 0
0 0 0 0 0 0 0 0 0
0 0 0 0 0 0 0 0 0
0 0 0 0 0 0 0 0 0
0 0 0 0 0 0 0 0 0
0 0 0 0 0 0 0 0 0
0 0 0 0 0 0 0 0 0
0 0 0 0 0 0 0 0 0
0 0 0 0 0 0 0 0 0
0 0 0 0 0 0 0 0 0
0 0 0 0 0 0 0 0 0
0 0 0 0 0 0 0 0 0
0 0 0 0 0 0 0 0 0
0 0 0 0 0 0 0 0 0
0 0 0 0 0 0 0 0 0
0 0 0 0 0 0 0 0 0
0 0 0 0 0 0 0 0 0