MODE 0
SIZE 9/30
LIMIT 0/20
COLOR LIMIT 9
STARS 400/2000/4000
CollectNo  8
6 6 13 6 13 33 13 6 13
6 6 0 0 6 6 0 0 6
0 6 0 0 0 16 0 0 0
16 16 0 0 16 16 0 0 6
24 0 24 13 24 0 24 13 6
6 6 0 0 6 24 0 0 24
0 6 0 0 0 24 0 0 0
6 6 6 6 6 6 6 6 6
0 6 0 24 0 6 0 0 0
6 6 0 0 6 2 0 0 6
6 0 6 13 24 0 16 13 6
6 6 0 0 6 6 0 0 6
0 6 14 0 5 6 14 0 0
0 5 5 5 4 5 4 0 0
0 0 3 3 4 4 4 17 0
0 0 2 4 3 3 17 0 0
0 0 2 2 4 14 5 0 0
0 0 0 4 11 5 0 0 0
0 0 0 0 0 0 0 0 0
0 0 0 0 0 0 0 0 0
0 0 0 0 0 0 0 0 0
0 0 0 0 0 0 0 0 0
0 0 0 0 0 0 0 0 0
0 0 0 0 0 0 0 0 0
0 0 0 0 0 0 0 0 0
0 0 0 0 0 0 0 0 0
0 0 0 0 0 0 0 0 0
0 0 0 0 0 0 0 0 0
0 0 0 0 0 0 0 0 0
0 0 0 0 0 0 0 0 0
0 0 0 0 0 0 0 0 0
0 0 0 0 0 0 0 0 0
0 0 0 0 0 0 0 0 0
0 0 0 0 0 0 0 0 0
0 0 0 0 0 0 0 0 0
0 0 0 0 0 0 0 0 0
0 0 0 0 0 0 0 0 0
0 0 0 0 0 0 0 0 0
0 0 0 0 0 0 0 0 0
0 0 0 0 0 0 0 0 0
0 0 0 0 0 0 0 0 0
0 0 0 0 0 0 0 0 0
0 0 0 0 0 0 0 0 0
0 0 0 0 0 0 0 0 0
0 0 0 0 0 0 0 0 0
0 0 0 0 0 0 0 0 0
0 0 0 0 0 0 0 0 0
0 0 0 0 0 0 0 0 0
0 0 0 0 0 0 0 0 0
0 0 0 0 0 0 0 0 0
0 0 0 0 0 0 0 0 0
0 0 0 0 0 0 0 0 0
0 0 0 0 0 0 0 0 0
0 0 0 0 0 0 0 0 0
0 0 0 0 0 0 0 0 0
0 0 0 0 0 0 0 0 0
0 0 0 0 0 0 0 0 0
0 0 0 0 0 0 0 0 0
0 0 0 0 0 0 0 0 0
0 0 0 0 0 0 0 0 0