MODE 0
SIZE 9/30
LIMIT 0/60
COLOR LIMIT 9
STARS 950/4750/9500
CollectNo  15
12 4 4 2 30 3 2 4 12
0 5 1 11 0 0 11 1 1
0 1 0 12 0 0 12 0 2
0 0 5 10 0 0 10 5 0
0 5 3 8 0 0 8 3 5
5 3 1 1 10 10 1 1 3
3 1 1 2 12 12 2 1 1
1 1 2 5 0 0 5 2 1
1 1 2 5 0 0 5 2 1
0 1 1 5 0 0 5 1 1
0 2 10 10 23 5 1 1 0
2 4 2 1 0 4 1 0 2
2 4 0 4 2 4 0 4 2
4 3 10 3 4 1 5 5 4
3 3 3 3 1 13 0 0 5
0 0 5 0 0 0 4 0 2
0 5 0 0 0 4 0 1 0
0 1 0 0 0 0 0 0 1
0 0 1 0 0 0 0 3 0
0 0 0 0 0 0 0 0 0
0 0 0 0 0 0 0 0 0
0 0 0 0 0 0 0 0 0
0 0 0 0 0 0 0 0 0
0 0 0 0 0 0 0 0 0
0 0 0 0 0 0 0 0 0
0 0 0 0 0 0 0 0 0
0 0 0 0 0 0 0 0 0
0 0 0 0 0 0 0 0 0
0 0 0 0 0 0 0 0 0
0 0 0 0 0 0 0 0 0
0 0 0 0 0 0 0 0 0
0 0 0 0 0 0 0 0 0
0 0 0 0 0 0 0 0 0
0 0 0 0 0 0 0 0 0
0 0 0 0 0 0 0 0 0
0 0 0 0 0 0 0 0 0
0 0 0 0 0 0 0 0 0
0 0 0 0 0 0 0 0 0
0 0 0 0 0 0 0 0 0
0 0 0 0 0 0 0 0 0
0 0 0 0 0 0 0 0 0
0 0 0 0 0 0 0 0 0
0 0 0 0 0 0 0 0 0
0 0 0 0 0 0 0 0 0
0 0 0 0 0 0 0 0 0
0 0 0 0 0 0 0 0 0
0 0 0 0 0 0 0 0 0
0 0 0 0 0 0 0 0 0
0 0 0 0 0 0 0 0 0
0 0 0 0 0 0 0 0 0
0 0 0 0 0 0 0 0 0
0 0 0 0 0 0 0 0 0