MODE 0
SIZE 9/30
LIMIT 0/60
COLOR LIMIT 9
STARS 930/4650/9300
CollectNo  13
4 5 3 10 5 1 4 2 8
1 4 5 30 10 5 3 4 3
5 1 4 5 3 1 5 3 11
3 5 1 4 5 3 1 5 3
4 3 23 10 13 5 3 10 2
1 4 3 5 1 4 5 3 10
3 1 4 3 5 19 11 19 2
4 3 1 4 3 5 1 2 3
5 4 3 1 11 3 2 3 4
2 5 11 3 1 2 3 4 2
2 4 12 1 2 3 4 2 1
4 5 1 9 10 11 2 8 12
5 1 2 3 4 2 1 5 0
1 2 3 4 2 1 5 0 0
2 3 4 2 1 5 0 0 0
3 4 2 1 5 0 0 0 0
4 2 1 5 0 0 0 0 0
2 1 5 0 0 0 0 0 0
1 5 0 0 0 0 0 0 0
12 0 0 0 0 0 0 0 0
0 0 0 0 0 0 0 0 0
0 0 0 0 0 0 0 0 0
0 0 0 0 0 0 0 0 0
0 0 0 0 0 0 0 0 0
0 0 0 0 0 0 0 0 0
0 0 0 0 0 0 0 0 0
0 0 0 0 0 0 0 0 0
0 0 0 0 0 0 0 0 0
0 0 0 0 0 0 0 0 0
0 0 0 0 0 0 0 0 0
0 0 0 0 0 0 0 0 0
0 0 0 0 0 0 0 0 0
0 0 0 0 0 0 0 0 0
0 0 0 0 0 0 0 0 0
0 0 0 0 0 0 0 0 0
0 0 0 0 0 0 0 0 0
0 0 0 0 0 0 0 0 0
0 0 0 0 0 0 0 0 0
0 0 0 0 0 0 0 0 0
0 0 0 0 0 0 0 0 0
0 0 0 0 0 0 0 0 0
0 0 0 0 0 0 0 0 0
0 0 0 0 0 0 0 0 0
0 0 0 0 0 0 0 0 0
0 0 0 0 0 0 0 0 0
0 0 0 0 0 0 0 0 0
0 0 0 0 0 0 0 0 0
0 0 0 0 0 0 0 0 0
0 0 0 0 0 0 0 0 0
0 0 0 0 0 0 0 0 0
0 0 0 0 0 0 0 0 0
0 0 0 0 0 0 0 0 0
0 0 0 0 0 0 0 0 0
0 0 0 0 0 0 0 0 0
0 0 0 0 0 0 0 0 0
0 0 0 0 0 0 0 0 0
0 0 0 0 0 0 0 0 0
0 0 0 0 0 0 0 0 0
0 0 0 0 0 0 0 0 0
0 0 0 0 0 0 0 0 0