MODE 0
SIZE 9/60
LIMIT 0/26
COLOR LIMIT 9
STARS 1400/7000/14000
CollectNo  7
0 2 2 0 0 0 0 0 2
4 4 4 2 0 0 0 2 4
0 0 0 4 29 9 2 4 0
0 0 0 0 4 11 4 0 0
4 0 0 0 5 12 5 0 0
13 13 0 0 0 5 0 0 0
4 4 4 0 5 23 23 0 4
4 4 4 4 4 5 4 4 4
4 4 4 0 5 23 5 0 4
4 4 0 0 0 5 0 0 0
4 0 0 0 0 5 0 0 0
0 0 0 0 23 23 23 0 0
0 0 0 0 0 10 0 0 0
0 0 0 0 3 3 3 0 0
3 3 3 3 3 3 3 3 3
2 20 20 20 0 9 0 11 11
0 0 0 0 2 2 2 0 0
4 0 0 0 5 5 5 0 0
4 4 0 0 0 23 0 0 0
4 4 4 0 5 5 5 0 4
4 13 13 13 4 12 4 4 4
13 13 4 0 5 5 5 0 4
4 4 0 0 0 5 0 0 0
4 0 0 0 0 5 0 0 0
0 0 0 0 5 14 5 0 0
0 3 0 3 0 10 0 3 0
3 0 3 0 3 0 3 0 3
0 3 0 3 0 3 0 3 0
1 1 1 10 10 10 1 1 1
6 6 6 6 6 6 6 6 6
6 6 6 6 6 6 6 6 6
0 0 0 0 0 0 0 0 0
0 0 0 0 0 0 0 0 0
0 0 0 0 0 0 0 0 0
0 0 0 0 0 0 0 0 0
0 0 0 0 0 0 0 0 0
0 0 0 0 0 0 0 0 0
0 0 0 0 0 0 0 0 0
0 0 0 0 0 0 0 0 0
0 0 0 0 0 0 0 0 0
0 0 0 0 0 0 0 0 0
0 0 0 0 0 0 0 0 0
0 0 0 0 0 0 0 0 0
0 0 0 0 0 0 0 0 0
0 0 0 0 0 0 0 0 0
0 0 0 0 0 0 0 0 0
0 0 0 0 0 0 0 0 0
0 0 0 0 0 0 0 0 0
0 0 0 0 0 0 0 0 0
0 0 0 0 0 0 0 0 0
0 0 0 0 0 0 0 0 0
0 0 0 0 0 0 0 0 0
0 0 0 0 0 0 0 0 0
0 0 0 0 0 0 0 0 0
0 0 0 0 0 0 0 0 0
0 0 0 0 0 0 0 0 0
0 0 0 0 0 0 0 0 0
0 0 0 0 0 0 0 0 0
0 0 0 0 0 0 0 0 0
0 0 0 0 0 0 0 0 0