MODE 0
SIZE 9/60
LIMIT 0/75
COLOR LIMIT 9
STARS 1700/8500/17000
CollectNo  13
12 0 10 0 0 8 8 0 11
0 5 0 3 28 0 0 20 0
5 0 3 0 0 10 20 0 4
0 5 0 3 10 0 0 20 0
5 0 3 0 0 19 20 0 4
0 5 0 12 19 0 0 2 0
5 0 12 0 0 1 2 0 4
0 5 0 12 1 0 0 2 0
5 0 12 0 0 1 2 0 4
0 5 0 12 1 0 0 2 0
5 0 3 0 0 1 2 0 4
0 5 0 3 1 0 0 2 0
5 0 3 0 0 1 2 0 4
0 5 0 3 1 0 0 2 0
0 2 3 2 0 8 2 0 11
2 0 2 0 2 2 0 2 0
2 0 2 0 2 9 0 2 0
4 0 4 0 4 0 4 0 4
0 4 0 4 0 11 0 4 0
3 3 3 3 3 3 3 3 3
23 23 23 23 3 0 3 5 5
0 5 0 3 0 2 0 3 0
0 12 3 0 2 0 2 0 3
0 5 3 0 2 0 2 0 3
0 5 0 3 0 2 0 3 0
5 5 5 5 3 0 3 5 5
0 5 5 0 0 10 0 0 5
4 4 4 4 4 11 4 4 4
4 4 4 4 4 4 4 4 4
0 0 0 0 0 0 0 0 0
0 0 0 0 0 0 0 0 0
0 0 0 0 0 0 0 0 0
0 0 0 0 0 0 0 0 0
0 0 0 0 0 0 0 0 0
0 0 0 0 0 0 0 0 0
0 0 0 0 0 0 0 0 0
0 0 0 0 0 0 0 0 0
0 0 0 0 0 0 0 0 0
0 0 0 0 0 0 0 0 0
0 0 0 0 0 0 0 0 0
0 0 0 0 0 0 0 0 0
0 0 0 0 0 0 0 0 0
0 0 0 0 0 0 0 0 0
0 0 0 0 0 0 0 0 0
0 0 0 0 0 0 0 0 0
0 0 0 0 0 0 0 0 0
0 0 0 0 0 0 0 0 0
0 0 0 0 0 0 0 0 0
0 0 0 0 0 0 0 0 0
0 0 0 0 0 0 0 0 0
0 0 0 0 0 0 0 0 0
0 0 0 0 0 0 0 0 0
0 0 0 0 0 0 0 0 0
0 0 0 0 0 0 0 0 0
0 0 0 0 0 0 0 0 0
0 0 0 0 0 0 0 0 0
0 0 0 0 0 0 0 0 0
0 0 0 0 0 0 0 0 0
0 0 0 0 0 0 0 0 0
0 0 0 0 0 0 0 0 0